Identifiant,Calories,Lipides,Fibres,Glucides
77,110,1,1,16
76,100,1,3,17
75,-1,1,3,17
74,110,1,0,13
73,110,1,0,21
72,100,1,3,16
71,140,1,4,15
70,110,1,0,21
69,90,0,3,15
68,110,0,1,16
67,110,1,1,9
66,90,0,3,20
64,80,0,3,16
63,110,0,0,22
62,110,0,0,23
61,90,0,2,15
60,100,2,2.5,10.5
59,120,1,5,14
58,-1,2,2.7,-1
57,100,1,2,14
56,50,0,1,10
55,50,0,0,13
54,100,0,1,20
53,120,1,6,11
52,130,2,1.5,13.5
51,90,0,3,18
50,140,2,3,21
49,120,1,0,15
48,100,1,2,15
47,160,2,3,17
46,150,3,3,16
45,150,3,3,16
44,100,1,0,16
43,110,1,0,12
42,100,2,2,12
41,-1,1,0,21
40,140,1,2,20
39,110,1,1,17
38,110,0,0,14
37,110,1,1.5,11.5
36,120,2,1,12
35,120,3,3,13
34,110,0,3,17
32,110,1,0,15
31,100,0,0,11
30,110,1,0,13
29,120,0,5,14
28,120,2,5,12
27,100,0,3,14
26,110,0,1,14
25,110,1,1,11
24,100,0,1,18
23,100,1,2,11
22,110,0,1,21
21,100,0,1,21
20,110,3,4,10
19,110,1,0,12
18,110,0,1,13
17,100,0,1,21
16,110,0,0,22
15,110,1,0,12
14,110,2,2,13
13,120,3,0,13